[waypoint number,reaching time], [input waypoints], [feedback waypoints]
Speed = 0.2 Torque = 0.5
[21, 1446670700.838803], [0.002301533079553053, -0.002301533079553053, -0.003835888465921755, -0.005113269292952083], [0.003835888465921311, -0.04986655005698104, -0.00997331001139612, -0.005113269292952083]
[22, 1446670700.905737], [0.0035800384401912357, -0.009228760325214367, -0.013813414219683911, -0.019855795634839347], [0.002301533079553053, 0.005370243852290457, -0.005370243852290457, -0.02556634646476086]
[23, 1446670700.972659], [0.005335981561923445, -0.02974551999200936, -0.04260955555132405, -0.061585509991390494], [0.005370243852290457, -0.03145428542055706, -0.04066041773876883, -0.056245962222473356]
[24, 1446670701.03875], [0.007450003004476178, -0.060454428974654625, -0.0855196585663727, -0.12355561535893955], [0.003835888465921311, -0.04986655005698104, -0.07595059162524764, -0.11760519373789924]
[25, 1446670701.105835], [0.009802743327575922, -0.09795810416786671, -0.1378390693703603, -0.19901931473382056], [0.006904599238659159, -0.08975979010256552, -0.12504996398904433, -0.16362461737446843]
[26, 1446670701.172741], [0.012274843090949174, -0.1388591624663622, -0.1948631340688174, -0.28122981111236744], [0.00997331001139612, -0.1357904516936248, -0.18335546867105235, -0.2607767339405589]
[27, 1446670701.239735], [0.014746942854322423, -0.17976022076485768, -0.2518871987672745, -0.3634403074909144], [0.011507665397764821, -0.1680119148073662, -0.2385922625803234, -0.3477023119207452]
[28, 1446670701.305851], [0.017099683177422165, -0.21726389595806975, -0.30420660957126217, -0.4389040068657954], [0.016110731556870483, -0.21864564255753116, -0.2968977672623323, -0.4346278899009315]
[29, 1446670701.3727], [0.019213704619974896, -0.24797280494071505, -0.34711671258631066, -0.5008741122333443], [0.016110731556870483, -0.24626403951216735, -0.33985971808065374, -0.49598712141635737]
[30, 1446670701.439936], [0.020969647741707106, -0.26848956460751, -0.37591285391795093, -0.5426038265898956], [0.017645086943239185, -0.2723480810804335, -0.37361553658076385, -0.5471198143458786]
[31, 1446670701.507], [0.0222481531023453, -0.27541679185317147, -0.3858903796717129, -0.557346352931783], [0.01917944232960833, -0.2815542133986457, -0.385890379671713, -0.5573463529317828]
[32, 1446670701.573722], [0.02224815310234529, -0.27541679185317136, -0.385890379671713, -0.5573463529317828], [0.01917944232960833, -0.2830885687850144, -0.3889590904444509, -0.5573463529317828]
[33, 1446670701.639726], [0.025760679905536217, -0.287456491246213, -0.3933761122780125, -0.5610646706780653], [0.02224815310234529, -0.2907603457168575, -0.39202780121718783, -0.5624596222247353]
[34, 1446670701.70674], [0.0335803955141973, -0.321849961027326, -0.4154088150665397, -0.5728715331322605], [0.029919930034188358, -0.3183787426714928, -0.4135087766263488, -0.5777994301035916]
[35, 1446670701.773651], [0.04463050272696101, -0.3730087585994924, -0.44835174549173773, -0.5907448041173903], [0.04219477312513753, -0.3705468258080269, -0.4472645951264589, -0.5931392379824478]
[36, 1446670701.840669], [0.05783420434245978, -0.43534444136569456, -0.4885681610080495, -0.6126623474564765], [0.052935260829718445, -0.42731797510366665, -0.4840891243993064, -0.6135923151542566]
[37, 1446670701.907743], [0.07211470315932611, -0.5032685667289145, -0.5324213190699183, -0.636602026972541], [0.06827881469340458, -0.4948296121038869, -0.5270510752176283, -0.6493852002049214]
[38, 1446670701.973703], [0.08639520197619241, -0.5711926920921344, -0.576274477131787, -0.6605417064886053], [0.08362236855709071, -0.5638756044904754, -0.5715473814223189, -0.66983827737673]
[39, 1446670702.040748], [0.09959890359169118, -0.6335283748583367, -0.6164908926480988, -0.6824592498276916], [0.09589721164803988, -0.6313872414906956, -0.6129749768542725, -0.6851780852555864]
[40, 1446670702.107725], [0.11064901080445488, -0.6846871724305029, -0.6494338230732968, -0.7003325208128215], [0.1081720547389895, -0.6866240353999671, -0.6482651507407509, -0.6954046238414906]
[41, 1446670702.174644], [0.11846872641311595, -0.719080642211616, -0.671466525861824, -0.7121393832670166], [0.11430947628446386, -0.7265172754455516, -0.6728148369226497, -0.7260842395992035]
[42, 1446670702.241724], [0.12198125321630687, -0.7311203416046576, -0.6789522584681237, -0.7158577010132992], [0.11737818705720082, -0.7418608293092381, -0.682020969240861, -0.7260842395992035]
[43, 1446670702.307711], [0.12198125321630693, -0.7311203416046577, -0.6789522584681236, -0.7158577010132992], [0.11891254244356952, -0.7433951846956068, -0.6850896800135984, -0.7158577010132992]
[44, 1446670702.374661], [0.14001491939609068, -0.7364579766700411, -0.6778456009107586, -0.7139923286916778], [0.1357904516936248, -0.7464638954683438, -0.6850896800135984, -0.7158577010132992]
[45, 1446670702.441683], [0.18724915616978946, -0.7526601289903674, -0.6765561018264825, -0.710643460961563], [0.17875240251194668, -0.7618074493320304, -0.6866240353999671, -0.7260842395992035]
[46, 1446670702.508735], [0.2563838208889245, -0.777010669251901, -0.6751294715970229, -0.7061819716750779], [0.23859226258032384, -0.78482278012756, -0.6866240353999671, -0.7260842395992035]
[47, 1446670702.574653], [0.34011877090501696, -0.806793468140906, -0.6736114206041076, -0.7009787346843459], [0.3107069657396502, -0.8124411770821953, -0.6866240353999671, -0.7158577010132992]
[48, 1446670702.641683], [0.4311538635695881, -0.8392923963436467, -0.6720476592294646, -0.6954046238414906], [0.39816522276266264, -0.8446626401959372, -0.6866240353999671, -0.705631162427395]
[49, 1446670702.708721], [0.5221889562341594, -0.8717913245463874, -0.6704838978548215, -0.6898305129986353], [0.48869219055841207, -0.8768841033096786, -0.6835553246272297, -0.7005178931344429]
[50, 1446670702.775747], [0.6059239062502519, -0.9015741234353924, -0.6689658468619064, -0.6846272760079033], [0.5776848029677932, -0.9121742771961574, -0.682020969240861, -0.6954046238414906]
[51, 1446670702.842681], [0.6750585709693868, -0.9259246636969262, -0.6675392166324466, -0.6801657867214183], [0.6559369276725944, -0.9367239633780553, -0.682020969240861, -0.6954046238414906]
[52, 1446670702.908726], [0.7222928077430855, -0.9421268160172522, -0.6662497175481706, -0.6768169189913034], [0.7111737215818654, -0.9566705834008475, -0.682020969240861, -0.6902913545485385]
[53, 1446670702.975632], [0.7403264739228697, -0.9474644510826358, -0.6651430599908057, -0.674951546669682], [0.7326546969910264, -0.9628080049463223, -0.682020969240861, -0.6902913545485385]
end
