[waypoint number,reaching time], [input waypoints], [feedback waypoints]
Speed = 0.1 Torque = 0.8
[0, 1448353814.589366], [0.002301533079553053, 0.34829860008459346, 0.002301533079553053, -0.010226538585904166], [-0.000767177693184351, 0.34753149501249725, 0.002301533079553053, -0.010226538585904166]
[1, 1448353814.628144], [0.002301533079553053, -0.000767177693184351, 0.002301533079553053, -0.010226538585904166], [0.002301533079553053, -0.000767177693184351, 0.000767177693184351, -0.015339807878856249]
[2, 1448353814.695103], [0.002301533079553053, 0.34829860008459346, 0.002301533079553053, -0.010226538585904166], [-0.000767177693184351, 0.35060020578523465, 0.003835888465921311, -0.010226538585904166]
[3, 1448353814.791364], [-0.9842889803554837, -0.4971312178045276, -1.2650760160609449, -0.9101619341454805], [-0.9842889803554837, -0.5132418767403104, -1.2620073052882075, -0.9152752034384326]
[4, 1448353814.85286], [-0.9842889803554837, -0.8461969955823054, -1.2650760160609449, -0.9101619341454805], [-0.985823335741852, -0.8185785986276701, -1.25893859451547, -0.9152752034384326]
[5, 1448353814.920581], [-0.9842889803554837, -0.4971312178045276, -1.2650760160609449, -0.9101619341454805], [-0.9842889803554837, -0.5193792982857852, -1.272747792992788, -0.9203884727313847]
[6, 1448353814.986881], [-0.5516007613995266, -0.5155434824409516, -1.2297858421744658, -0.925501742024337], [-0.5546694721722636, -0.5270510752176283, -1.2451293960381524, -0.9306150113172891]
[7, 1448353815.052171], [-0.5516007613995266, -0.8646092602187294, -1.2297858421744658, -0.925501742024337], [-0.5516007613995266, -0.858471838673255, -1.2328545529472033, -0.9306150113172891]
[8, 1448353815.121886], [-0.5516007613995266, -0.5155434824409516, -1.2297858421744658, -0.925501742024337], [-0.5516007613995266, -0.5393259183085775, -1.2374576191063094, -0.925501742024337]
[9, 1448353815.188182], [-0.2861572795577514, -0.6367575579640742, -1.0395257742647548, -0.7618771246498686], [-0.28769163494412053, -0.6544025722862257, -1.0518006173557035, -0.7618771246498686]
[10, 1448353815.253099], [-0.2861572795577514, -0.985823335741852, -1.0395257742647548, -0.7618771246498686], [-0.2907603457168575, -0.9612736495599536, -1.036457063492017, -0.7618771246498686]
[11, 1448353815.319436], [-0.2861572795577514, -0.6367575579640742, -1.0395257742647548, -0.7618771246498686], [-0.28769163494412053, -0.6620743492180687, -1.0441288404238604, -0.7618771246498686]
