[waypoint number,reaching time], [input waypoints], [feedback waypoints]
Speed = 0.2 Torque = 0.5
[0, 1446492297.01274], [-0.000767177693184351, 0.34676424469822476, -0.003835888465921755, -0.005113269292952083], [0.000767177693184351, 0.3536689165579716, 0.000767177693184351, -0.005113269292952083]
[1, 1446492297.079284], [-0.000767177693184351, -0.002301533079553053, -0.003835888465921755, -0.005113269292952083], [0.000767177693184351, 0.046797839284243636, 0.000767177693184351, -0.010226538585904166]
[2, 1446492297.150118], [-0.000767177693184351, 0.34676424469822476, -0.003835888465921755, -0.005113269292952083], [-0.002301533079553053, 0.31837874267149324, -0.002301533079553053, -0.010226538585904166]
[3, 1446492297.212679], [-0.9766172034236402, -0.645963690282286, -0.9674110711054285, -0.9612946270750018], [-0.9582049387872167, -0.6329215968770647, -0.9628080049463223, -0.894822126266624]
[4, 1446492297.283599], [-0.9766172034236402, -0.9950294680600638, -0.9674110711054285, -0.9612946270750018], [-0.9750828480372715, -0.9766172034236402, -0.9766172034236402, -0.9664078963679541]
[5, 1446492297.350834], [-0.9766172034236402, -0.645963690282286, -0.9674110711054285, -0.9612946270750018], [-0.9750828480372715, -0.7418608293092381, -0.9766172034236402, -0.9664078963679541]
[6, 1446492297.417909], [-0.5976314229905855, -0.7257501703734553, -0.806303755536721, -1.1044661672776617], [-0.6636087046044374, -0.7418608293092381, -0.8216473094004071, -1.1402590523283267]
[7, 1446492297.484715], [-0.5976314229905855, -1.0748159481512332, -0.806303755536721, -1.1044661672776617], [-0.6007001337633233, -1.0564036835148096, -0.8155098878549332, -1.1044661672776617]
[8, 1446492297.551267], [-0.5976314229905855, -0.7257501703734553, -0.806303755536721, -1.1044661672776617], [-0.6007001337633233, -0.7418608293092381, -0.813975532468564, -1.1044661672776617]
[9, 1446492297.618225], [-0.3720811811943956, -0.8853231305557941, -0.49636396749025513, -1.0891263593988052], [-0.37361553658076385, -0.9075712110370513, -0.528585430603997, -1.0993528979847096]
[10, 1446492297.684581], [-0.3720811811943956, -1.234388908333572, -0.49636396749025513, -1.0891263593988052], [-0.3720811811943956, -1.2190453544698854, -0.5055700998084673, -1.0993528979847096]
[11, 1446492297.746854], [-0.3720811811943956, -0.8853231305557941, -0.49636396749025513, -1.0891263593988052], [-0.375149891967133, -0.9060368556506826, -0.5040357444220986, -1.0993528979847096]
[12, 1446492297.813331], [-0.1388591624663622, -0.8914605521012687, -0.47641734746746334, -1.2118448224296565], [-0.22785177487574337, -0.9060368556506826, -0.4948296121038869, -1.1965050145508003]
[13, 1446492297.88489], [-0.1388591624663622, -1.2405263298790465, -0.47641734746746334, -1.2118448224296565], [-0.13732480707999306, -1.22518277601536, -0.4856234797856751, -1.2118448224296565]
[14, 1446492297.951498], [-0.1388591624663622, -0.8914605521012687, -0.47641734746746334, -1.2118448224296565], [-0.1403935178527309, -0.9106399218097887, -0.4840891243993064, -1.2118448224296565]
[15, 1446492298.018062], [-0.03759170696603187, -0.8975979736467431, -0.4564707274446711, -1.2527509767732736], [-0.1327217409208874, -0.9121742771961574, -0.481020413626569, -1.2169580917226088]
[16, 1446492298.08462], [-0.03759170696603187, -1.246663751424521, -0.4564707274446711, -1.2527509767732736], [-0.03759170696603187, -1.2328545529472033, -0.46414250437651416, -1.257864246066226]
[17, 1446492298.147175], [-0.03759170696603187, -0.8975979736467431, -0.4564707274446711, -1.2527509767732736], [-0.03759170696603187, -0.9167773433552635, -0.46414250437651416, -1.262977515359178]
[18, 1446492298.212784], [-0.025316863875082696, -0.4173447377133582, -1.3985649346750164, -0.8436894333371028], [-0.025316863875082696, -0.43192104126277275, -1.3954962239022792, -0.853915971923007]
[19, 1446492298.279656], [-0.025316863875082696, -0.766410515491136, -1.3985649346750164, -0.8436894333371028], [-0.025316863875082696, -0.7433951846956068, -1.404702356220491, -0.853915971923007]
[20, 1446492298.345725], [-0.025316863875082696, -0.4173447377133582, -1.3985649346750164, -0.8436894333371028], [-0.023782508488713994, -0.49636396749025513, -1.404702356220491, -0.8488027026300549]
[21, 1446492298.412347], [0.3736155365807643, -0.368245365349562, -1.4016336454477538, -0.853915971923007], [0.28922599033048924, -0.3889590904444509, -1.40623671160686, -0.853915971923007]
[22, 1446492298.478873], [0.3736155365807643, -0.7173111431273398, -1.4016336454477538, -0.853915971923007], [0.3736155365807643, -0.6958301677181788, -1.4077710669932284, -0.853915971923007]
[23, 1446492298.551525], [0.3736155365807643, -0.368245365349562, -1.4016336454477538, -0.853915971923007], [0.3736155365807643, -0.4472645951264589, -1.40623671160686, -0.853915971923007]
[24, 1446492298.618172], [0.4181118427854549, -0.20713804978085448, -1.7790850704944396, -0.7823302018216771], [0.4150431320127175, -0.21864564255753116, -1.7223139211988, -0.7976700097005334]
[25, 1446492298.694296], [0.4181118427854549, -0.5562038275586323, -1.7790850704944396, -0.7823302018216771], [0.4165774873990862, -0.5316541413767344, -1.785222492039914, -0.7874434711146292]
[26, 1446492298.760951], [0.4181118427854549, -0.20713804978085448, -1.7790850704944396, -0.7823302018216771], [0.4165774873990862, -0.2616075933758535, -1.785222492039914, -0.7976700097005334]
[27, 1446492298.822887], [0.4963639674902556, -0.598398673304858, -1.1208466097422924, -0.5880259686894957], [0.49176090133114947, -0.6145093322406407, -1.1592054944015087, -0.5880259686894957]
[28, 1446492298.891915], [0.4963639674902556, -0.9474644510826358, -1.1208466097422924, -0.5880259686894957], [0.49176090133114947, -0.9305865418325809, -1.131587097446873, -0.5931392379824478]
[29, 1446492298.960195], [0.4963639674902556, -0.598398673304858, -1.1208466097422924, -0.5880259686894957], [0.49176090133114947, -0.6973645231045476, -1.1300527420605042, -0.5931392379824478]
[30, 1446492299.024866], [0.528585430603997, -1.0157433383971286, -0.30456954419417537, -0.9561813577820497], [0.5239823644448909, -1.0349227081056487, -0.3367910073079168, -0.9612946270750018]
[31, 1446492299.092875], [0.528585430603997, -1.3648091161749063, -0.30456954419417537, -0.9561813577820497], [0.5239823644448909, -1.3509999176975886, -0.31224132112601843, -0.9612946270750018]
[32, 1446492299.160715], [0.528585430603997, -1.0157433383971286, -0.30456954419417537, -0.9561813577820497], [0.5239823644448909, -1.0379914188783856, -0.31070696573964973, -0.9612946270750018]
[33, 1446492299.22069], [0.6758835476953866, -1.0571709338290822, -0.18488982405742105, -1.0891263593988052], [0.6574712830589631, -1.073281592764865, -0.2094395102393194, -1.078899820812901]
[34, 1446492299.292287], [0.6758835476953866, -1.40623671160686, -0.18488982405742105, -1.0891263593988052], [0.6743491923090179, -1.3939618685159108, -0.19256160098926456, -1.0891263593988052]
[35, 1446492299.35032], [0.6758835476953866, -1.0571709338290822, -0.18488982405742105, -1.0891263593988052], [0.6743491923090179, -1.0794190143103393, -0.19102724560289586, -1.0891263593988052]
end
